simulation/qsim/sap_1.msim.vcd
$comment
	File created using the following command:
		vcd file sap_1.msim.vcd -direction
$end
$date
	Thu Feb 20 07:08:43 2020
$end
$version
	ModelSim Version 10.1d
$end
$timescale
	1ps
$end
$scope module sap_1_vlg_vec_tst $end
$var reg 1 ! clk $end
$var reg 1 " reset $end
$var wire 1 # ac_out [7] $end
$var wire 1 $ ac_out [6] $end
$var wire 1 % ac_out [5] $end
$var wire 1 & ac_out [4] $end
$var wire 1 ' ac_out [3] $end
$var wire 1 ( ac_out [2] $end
$var wire 1 ) ac_out [1] $end
$var wire 1 * ac_out [0] $end
$var wire 1 + ar_out [3] $end
$var wire 1 , ar_out [2] $end
$var wire 1 - ar_out [1] $end
$var wire 1 . ar_out [0] $end
$var wire 1 / cf_out $end
$var wire 1 0 dr_out [7] $end
$var wire 1 1 dr_out [6] $end
$var wire 1 2 dr_out [5] $end
$var wire 1 3 dr_out [4] $end
$var wire 1 4 dr_out [3] $end
$var wire 1 5 dr_out [2] $end
$var wire 1 6 dr_out [1] $end
$var wire 1 7 dr_out [0] $end
$var wire 1 8 mem_wr_out $end
$var wire 1 9 pc_out [3] $end
$var wire 1 : pc_out [2] $end
$var wire 1 ; pc_out [1] $end
$var wire 1 < pc_out [0] $end
$var wire 1 = zf_out $end
$var wire 1 > sampler $end
$scope module i1 $end
$var wire 1 ? gnd $end
$var wire 1 @ vcc $end
$var wire 1 A unknown $end
$var tri1 1 B devclrn $end
$var tri1 1 C devpor $end
$var tri1 1 D devoe $end
$var wire 1 E Add2~4_combout $end
$var wire 1 F state_reg.execute_jz~regout $end
$var wire 1 G Selector1~0_combout $end
$var wire 1 H Mux1~8_combout $end
$var wire 1 I Mux1~9_combout $end
$var wire 1 J Mux1~10_combout $end
$var wire 1 K state_reg.execute_hlt~regout $end
$var wire 1 L Mux0~0_combout $end
$var wire 1 M state_reg.execute_hlt~0_combout $end
$var wire 1 N clk~combout $end
$var wire 1 O clk~clkctrl_outclk $end
$var wire 1 P reset~combout $end
$var wire 1 Q reset~clkctrl_outclk $end
$var wire 1 R state_reg.decode~regout $end
$var wire 1 S WideOr3~0_combout $end
$var wire 1 T Selector13~0_combout $end
$var wire 1 U state_reg.fetch~regout $end
$var wire 1 V Selector2~0_combout $end
$var wire 1 W state_reg.reset_pc~feeder_combout $end
$var wire 1 X state_reg.reset_pc~regout $end
$var wire 1 Y Selector2~1_combout $end
$var wire 1 Z Add0~0_combout $end
$var wire 1 [ Mux1~17_combout $end
$var wire 1 \ state_reg.execute_lda~regout $end
$var wire 1 ] ac_reg[0]~1_combout $end
$var wire 1 ^ Add1~1 $end
$var wire 1 _ Add1~3 $end
$var wire 1 ` Add1~4_combout $end
$var wire 1 a Selector10~0_combout $end
$var wire 1 b Selector10~1_combout $end
$var wire 1 c Selector10~2_combout $end
$var wire 1 d WideOr2~0_combout $end
$var wire 1 e Selector8~1_combout $end
$var wire 1 f Add1~5 $end
$var wire 1 g Add1~7 $end
$var wire 1 h Add1~8_combout $end
$var wire 1 i Add2~7 $end
$var wire 1 j Add2~8_combout $end
$var wire 1 k Selector8~0_combout $end
$var wire 1 l Selector8~2_combout $end
$var wire 1 m Add1~9 $end
$var wire 1 n Add1~10_combout $end
$var wire 1 o Mux1~14_combout $end
$var wire 1 p state_reg.execute_sub~regout $end
$var wire 1 q Add2~9 $end
$var wire 1 r Add2~10_combout $end
$var wire 1 s Selector7~0_combout $end
$var wire 1 t Selector7~1_combout $end
$var wire 1 u Add1~11 $end
$var wire 1 v Add1~12_combout $end
$var wire 1 w Add2~11 $end
$var wire 1 x Add2~12_combout $end
$var wire 1 y Selector6~0_combout $end
$var wire 1 z Selector6~1_combout $end
$var wire 1 { Add1~13 $end
$var wire 1 | Add1~14_combout $end
$var wire 1 } Add2~13 $end
$var wire 1 ~ Add2~14_combout $end
$var wire 1 !! Selector5~0_combout $end
$var wire 1 "! Selector5~1_combout $end
$var wire 1 #! Add2~1 $end
$var wire 1 $! Add2~3 $end
$var wire 1 %! Add2~5 $end
$var wire 1 &! Add2~6_combout $end
$var wire 1 '! Selector9~0_combout $end
$var wire 1 (! Add1~6_combout $end
$var wire 1 )! Selector9~1_combout $end
$var wire 1 *! Selector9~2_combout $end
$var wire 1 +! Mux1~15_combout $end
$var wire 1 ,! state_reg.execute_ldi~regout $end
$var wire 1 -! ac_reg[0]~0_combout $end
$var wire 1 .! Add1~2_combout $end
$var wire 1 /! Add2~2_combout $end
$var wire 1 0! Selector11~0_combout $end
$var wire 1 1! Selector11~1_combout $end
$var wire 1 2! Selector11~2_combout $end
$var wire 1 3! Selector0~0_combout $end
$var wire 1 4! mem_addr[3]~7_combout $end
$var wire 1 5! Selector1~1_combout $end
$var wire 1 6! Add1~15 $end
$var wire 1 7! Add1~16_combout $end
$var wire 1 8! Add2~15 $end
$var wire 1 9! Add2~16_combout $end
$var wire 1 :! Selector4~0_combout $end
$var wire 1 ;! Selector4~1_combout $end
$var wire 1 <! cf_reg~regout $end
$var wire 1 =! Mux1~19_combout $end
$var wire 1 >! state_reg.execute_jmp~regout $end
$var wire 1 ?! mem_addr[0]~0_combout $end
$var wire 1 @! mem_addr[0]~3_combout $end
$var wire 1 A! mem_addr[2]~6_combout $end
$var wire 1 B! Mux1~11_combout $end
$var wire 1 C! Mux1~18_combout $end
$var wire 1 D! state_reg.execute_jc~regout $end
$var wire 1 E! Equal0~0_combout $end
$var wire 1 F! Equal0~1_combout $end
$var wire 1 G! Equal0~2_combout $end
$var wire 1 H! zf_reg~regout $end
$var wire 1 I! pc_reg[0]~0_combout $end
$var wire 1 J! WideOr0~0_combout $end
$var wire 1 K! pc_reg[0]~1_combout $end
$var wire 1 L! mem_addr[1]~5_combout $end
$var wire 1 M! Mux1~13_combout $end
$var wire 1 N! state_reg.execute_sta~regout $end
$var wire 1 O! mem_addr[0]~1_combout $end
$var wire 1 P! mem_addr[0]~2_combout $end
$var wire 1 Q! mem_addr[0]~4_combout $end
$var wire 1 R! Mux1~12_combout $end
$var wire 1 S! Mux1~16_combout $end
$var wire 1 T! state_reg.execute_add~regout $end
$var wire 1 U! Add2~0_combout $end
$var wire 1 V! Add1~0_combout $end
$var wire 1 W! Selector12~0_combout $end
$var wire 1 X! Selector12~1_combout $end
$var wire 1 Y! Selector12~2_combout $end
$var wire 1 Z! Selector3~0_combout $end
$var wire 1 [! pc_reg [3] $end
$var wire 1 \! pc_reg [2] $end
$var wire 1 ]! pc_reg [1] $end
$var wire 1 ^! pc_reg [0] $end
$var wire 1 _! inst_reg [7] $end
$var wire 1 `! inst_reg [6] $end
$var wire 1 a! inst_reg [5] $end
$var wire 1 b! inst_reg [4] $end
$var wire 1 c! inst_reg [3] $end
$var wire 1 d! inst_reg [2] $end
$var wire 1 e! inst_reg [1] $end
$var wire 1 f! inst_reg [0] $end
$var wire 1 g! ac_reg [8] $end
$var wire 1 h! ac_reg [7] $end
$var wire 1 i! ac_reg [6] $end
$var wire 1 j! ac_reg [5] $end
$var wire 1 k! ac_reg [4] $end
$var wire 1 l! ac_reg [3] $end
$var wire 1 m! ac_reg [2] $end
$var wire 1 n! ac_reg [1] $end
$var wire 1 o! ac_reg [0] $end
$var wire 1 p! memory|auto_generated|q_a [7] $end
$var wire 1 q! memory|auto_generated|q_a [6] $end
$var wire 1 r! memory|auto_generated|q_a [5] $end
$var wire 1 s! memory|auto_generated|q_a [4] $end
$var wire 1 t! memory|auto_generated|q_a [3] $end
$var wire 1 u! memory|auto_generated|q_a [2] $end
$var wire 1 v! memory|auto_generated|q_a [1] $end
$var wire 1 w! memory|auto_generated|q_a [0] $end
$var wire 1 x! memory|auto_generated|ram_block1a0_PORTADATAOUT_bus [7] $end
$var wire 1 y! memory|auto_generated|ram_block1a0_PORTADATAOUT_bus [6] $end
$var wire 1 z! memory|auto_generated|ram_block1a0_PORTADATAOUT_bus [5] $end
$var wire 1 {! memory|auto_generated|ram_block1a0_PORTADATAOUT_bus [4] $end
$var wire 1 |! memory|auto_generated|ram_block1a0_PORTADATAOUT_bus [3] $end
$var wire 1 }! memory|auto_generated|ram_block1a0_PORTADATAOUT_bus [2] $end
$var wire 1 ~! memory|auto_generated|ram_block1a0_PORTADATAOUT_bus [1] $end
$var wire 1 !" memory|auto_generated|ram_block1a0_PORTADATAOUT_bus [0] $end
$upscope $end
$upscope $end
$enddefinitions $end
#0
$dumpvars
0!
0"
0*
0)
0(
0'
0&
0%
0$
0#
0.
0-
0,
0+
0/
07
06
05
04
03
02
01
00
08
0<
0;
0:
09
0=
x>
0?
1@
xA
1B
1C
1D
0E
0F
0G
0H
0I
0J
0K
0L
0M
0N
0O
0P
0Q
0R
1S
1T
0U
0V
1W
0X
0Y
0Z
0[
0\
0]
0^
1_
0`
0a
0b
0c
1d
0e
0f
1g
0h
0i
0j
0k
0l
0m
0n
0o
0p
1q
0r
0s
0t
1u
0v
0w
0x
0y
0z
0{
0|
1}
0~
0!!
0"!
1#!
0$!
1%!
0&!
0'!
0(!
0)!
0*!
0+!
0,!
1-!
0.!
0/!
00!
01!
02!
03!
04!
05!
16!
07!
08!
19!
0:!
0;!
0<!
0=!
0>!
1?!
0@!
0A!
0B!
0C!
0D!
1E!
1F!
1G!
0H!
0I!
0J!
1K!
0L!
0M!
0N!
1O!
0P!
0Q!
0R!
0S!
0T!
0U!
0V!
0W!
0X!
0Y!
0Z!
0^!
0]!
0\!
0[!
0f!
0e!
0d!
0c!
0b!
0a!
0`!
0_!
0o!
0n!
0m!
0l!
0k!
0j!
0i!
0h!
0g!
0w!
0v!
0u!
0t!
0s!
0r!
0q!
0p!
0!"
0~!
0}!
0|!
0{!
0z!
0y!
0x!
$end
#5000
1!
1N
1O
0>
1H!
1X
1U
1Z!
1@!
0d
0S
1=
0T
#5001
1z!
1y!
1x!
1r!
1q!
1p!
1w
1r
1n
0}
1x
1v
18!
1~
1|
12
11
10
0x
0~
09!
#10000
0!
0N
0O
1>
#15000
1!
1N
1O
0>
1^!
1`!
1_!
1a!
0U
1R
0Z!
1Q!
1J
1H
1J!
0O!
1<
0K!
1P!
0@!
1.
0Q!
0.
#20000
0!
0N
0O
1>
#25000
1!
1N
1O
0>
0R
1O!
1S
0H
0P!
1@!
1T
1Q!
1.
#30000
0!
0N
0O
1>
#35000
1!
1N
1O
0>
1U
0J!
1V
0S
1K!
1Y
0T
#35001
1!"
1~!
1}!
1|!
0y!
0x!
1w!
1v!
1u!
1t!
0q!
0p!
1W!
0#!
1U!
1V!
10!
1$!
1/!
1.!
1a
1`
0%!
1E
1i
1&!
1(!
1x
0v
1~
0|
17
16
15
14
01
00
1X!
0/!
11!
0E
1b
0&!
0q
1j
0r
#40000
0!
0N
0O
1>
#45000
1!
1N
1O
0>
0^!
1f!
0`!
1]!
0_!
1d!
1c!
1e!
0U
1R
1Z!
0Q!
0V
0J
1L!
1R!
1=!
15!
13!
1J!
0O!
0<
1;
0=!
1S!
0K!
1P!
0@!
0.
1-
1Q!
1A!
14!
1.
1,
1+
#50000
0!
0N
0O
1>
#55000
1!
1N
1O
0>
1T!
0R
1Y!
12!
1)!
1s
1d
1c
1]
0R!
1O!
1S
1*!
1t
00!
1'!
0S!
0P!
1@!
1T
0Q!
0A!
04!
0.
0,
0+
#55001
0~!
0}!
0|!
0z!
0v!
0u!
0t!
0r!
1/!
0.!
0`
1E
1&!
0(!
1r
0n
06
05
04
02
01!
0a
0)!
0s
02!
0b
0*!
0t
0c
#60000
0!
0N
0O
1>
#65000
1!
1N
1O
0>
1o!
0T!
1U
0G!
1#!
0U!
1^
0V!
0Y!
0d
0]
0J!
05!
03!
0Y
1V
0S
1*
0$!
0/!
1.!
0'!
1K!
1Y
0T
1%!
0E
0i
0&!
1q
0j
0w
0r
1}
0x
08!
0~
19!
#65001
0!"
1}!
1{!
1z!
1y!
0w!
1u!
1s!
1r!
1q!
0W!
1U!
0^
1V!
1a
1`
0%!
1E
0q
1j
1h
1w
1r
1n
0}
1x
1v
07
15
13
12
11
0X!
0.!
1b
1i
1&!
0r
0x
18!
1~
0j
09!
#70000
0!
0N
0O
1>
#75000
1!
1N
1O
0>
1^!
0f!
1b!
1`!
0H!
0c!
0e!
0U
1R
0Z!
1Q!
0V
1B!
1J
0O!
1J!
15!
1<
0=
0Y
1C!
1P!
0@!
0K!
1.
0Q!
0L!
1A!
0.
0-
1,
#80000
0!
0N
0O
1>
#85000
1!
1N
1O
0>
1D!
0R
0J!
1I!
1O!
0B!
1S
0P!
1@!
0C!
1T
1Q!
1L!
0A!
1.
1-
0,
#85001
1!"
1~!
1|!
0y!
1w!
1v!
1t!
0q!
1W!
0U!
1^
0V!
10!
1$!
1/!
1.!
0&!
1(!
1x
0v
17
16
14
01
1X!
0_
0.!
11!
0E
1f
0`
0g
0(!
1m
0h
0u
0n
1v
#90000
0!
0N
0O
1>
#95000
1!
1N
1O
0>
0D!
1U
0I!
05!
0S
1G
1K!
0T
15!
#95001
0!"
0~!
0}!
0|!
0{!
1y!
0w!
0v!
0u!
0t!
0s!
1q!
0W!
1U!
0^
1V!
00!
0$!
0/!
1_
1.!
0a
0f
1`
1E
1&!
1g
1(!
1j
0m
1h
0x
1{
0v
07
06
05
04
03
11
0X!
0.!
01!
1%!
0E
0`
0b
0(!
0h
1u
1n
1|
0i
0&!
0{
1v
1q
0j
0|
1r
#100000
0!
0N
0O
1>
#105000
1!
1N
1O
0>
0^!
0b!
0]!
1\!
0d!
0U
1R
0Q!
0G
1R!
1=!
0L!
1A!
1J!
0O!
0<
0;
1:
05!
0K!
1P!
0@!
0.
0-
1,
0A!
0,
#110000
0!
0N
0O
1>
#115000
1!
1N
1O
0>
1>!
0R
0J!
0?!
0R!
1O!
0=!
1S
1K!
1T
#115001
1x!
1p!
0~
1|
10
#120000
0!
0N
0O
1>
#125000
1!
1N
1O
0>
0>!
0\!
1U
1?!
1Z!
0P!
1@!
0S
0:
0T
#130000
0!
0N
0O
1>
#135000
1!
1N
1O
0>
1^!
1_!
0U
1R
0Z!
1Q!
1H
1J!
0O!
1<
0K!
1P!
0@!
1.
0Q!
0.
#140000
0!
0N
0O
1>
#145000
1!
1N
1O
0>
0R
1O!
1S
0H
0P!
1@!
1T
1Q!
1.
#150000
0!
0N
0O
1>
#155000
1!
1N
1O
0>
1U
0J!
1V
0S
1K!
1Y
0T
#155001
1!"
1~!
1}!
1|!
0y!
0x!
1w!
1v!
1u!
1t!
0q!
0p!
1W!
0U!
1^
0V!
10!
1$!
1/!
1.!
1a
1`
0%!
1E
1i
1&!
1(!
1x
0v
1~
0|
17
16
15
14
01
00
1X!
0_
0.!
11!
0E
1b
0&!
0q
1j
1f
0`
0r
0g
0(!
1h
#160000
0!
0N
0O
1>
#165000
1!
1N
1O
0>
0^!
1f!
0`!
1]!
0_!
1d!
1c!
1e!
0U
1R
1Z!
0Q!
0V
0J
1L!
1R!
1=!
15!
13!
1J!
0O!
0<
1;
0=!
1S!
0K!
1P!
0@!
0.
1-
1Q!
1A!
14!
1.
1,
1+
#170000
0!
0N
0O
1>
#175000
1!
1N
1O
0>
1T!
0R
1Y!
12!
1)!
1s
1k
1d
1c
1]
0R!
1O!
1S
1*!
1t
1l
0W!
00!
1'!
0a
0S!
0P!
1@!
1T
0X!
01!
0)!
0b
0Q!
0A!
04!
0Y!
02!
0*!
0c
0.
0,
0+
#175001
0~!
0}!
0|!
0z!
0v!
0u!
0t!
0r!
0$!
0/!
1_
1.!
0f
1`
1E
1&!
1g
1(!
1r
0n
06
05
04
02
1%!
0E
0`
11!
0(!
1a
0h
1)!
0s
0i
0&!
1b
0a
12!
0)!
0k
1*!
0t
1q
0j
1c
0b
0*!
0l
0w
0r
0c
1}
0x
08!
0~
19!
#180000
0!
0N
0O
1>
#185000
1!
1N
1O
0>
0o!
0T!
1n!
1U
1G!
0#!
1U!
0^
1V!
02!
0d
0]
0F!
1/!
0_
0.!
0J!
05!
03!
0Y
1V
0S
0*
1)
0/!
1_
1.!
1W!
01!
0'!
0G!
1`
1K!
1Y
0T
0`
1X!
#185001
0!"
1}!
1{!
1z!
1y!
0w!
1u!
1s!
1r!
1q!
0W!
1#!
0U!
0V!
1a
1`
0%!
1E
0q
1j
1h
1w
1r
1n
0}
1x
1v
07
15
13
12
11
0X!
1/!
1b
1i
1&!
0r
0x
18!
1~
0j
09!
#190000
0!
0N
0O
1>
#195000
1!
1N
1O
0>
1^!
0f!
1b!
1`!
0c!
0e!
0U
1R
0Z!
1Q!
0V
1B!
1J
1J!
15!
0O!
1<
0Y
1C!
0K!
1P!
0@!
1.
0Q!
0L!
1A!
0.
0-
1,
#200000
0!
0N
0O
1>
#205000
1!
1N
1O
0>
1D!
0R
0J!
1I!
1O!
0B!
1S
0P!
1@!
0C!
1T
1Q!
1L!
0A!
1.
1-
0,
#205001
1!"
1~!
1|!
0y!
1w!
1v!
1t!
0q!
1W!
0#!
1U!
1V!
10!
0/!
0_
0.!
0&!
1(!
1x
0v
17
16
14
01
1X!
1$!
1/!
11!
1f
0`
0E
0g
0(!
1m
0h
0u
0n
1v
#210000
0!
0N
0O
1>
#215000
1!
1N
1O
0>
0D!
1U
0I!
05!
0S
1G
1K!
0T
15!
#215001
0!"
0~!
0}!
0|!
0{!
1y!
0w!
0v!
0u!
0t!
0s!
1q!
0W!
1#!
0U!
0V!
00!
0$!
0/!
1_
1.!
0a
0f
1`
1E
1&!
1g
1(!
1j
0m
1h
0x
1{
0v
07
06
05
04
03
11
0X!
1/!
01!
1%!
0E
0`
0b
0(!
0h
1u
1n
1|
0i
0&!
0{
1v
1q
0j
0|
1r
#220000
0!
0N
0O
1>
#225000
1!
1N
1O
0>
0^!
0b!
0]!
1\!
0d!
0U
1R
0Q!
0G
1R!
1=!
0L!
1A!
1J!
0O!
0<
0;
1:
05!
0K!
1P!
0@!
0.
0-
1,
0A!
0,
#230000
0!
0N
0O
1>
#235000
1!
1N
1O
0>
1>!
0R
0J!
0?!
0R!
1O!
0=!
1S
1K!
1T
#235001
1x!
1p!
0~
1|
10
#240000
0!
0N
0O
1>
#245000
1!
1N
1O
0>
0>!
0\!
1U
1?!
1Z!
0P!
1@!
0S
0:
0T
#250000
0!
0N
0O
1>
#255000
1!
1N
1O
0>
1^!
1_!
0U
1R
0Z!
1Q!
1H
1J!
0O!
1<
0K!
1P!
0@!
1.
0Q!
0.
#260000
0!
0N
0O
1>
#265000
1!
1N
1O
0>
0R
1O!
1S
0H
0P!
1@!
1T
1Q!
1.
#270000
0!
0N
0O
1>
#275000
1!
1N
1O
0>
1U
0J!
1V
0S
1K!
1Y
0T
#275001
1!"
1~!
1}!
1|!
0y!
0x!
1w!
1v!
1u!
1t!
0q!
0p!
1W!
0#!
1U!
1V!
10!
0/!
0_
0.!
1a
1`
0%!
1E
1i
1&!
1(!
1x
0v
1~
0|
17
16
15
14
01
00
1X!
1$!
1/!
11!
1f
0`
1b
0&!
0q
1j
0E
0g
0(!
0r
1h
#280000
0!
0N
0O
1>
#285000
1!
1N
1O
0>
0^!
1f!
0`!
1]!
0_!
1d!
1c!
1e!
0U
1R
1Z!
0Q!
0V
0J
1L!
1R!
1=!
15!
13!
1J!
0O!
0<
1;
0=!
1S!
0K!
1P!
0@!
0.
1-
1Q!
1A!
14!
1.
1,
1+
#290000
0!
0N
0O
1>
#295000
1!
1N
1O
0>
1T!
0R
1Y!
12!
1)!
1s
1k
1d
1c
1]
0R!
1O!
1S
1*!
1t
1l
00!
1'!
0a
0S!
0P!
1@!
1T
01!
0)!
0b
0Q!
0A!
04!
02!
0*!
0c
0.
0,
0+
#295001
0~!
0}!
0|!
0z!
0v!
0u!
0t!
0r!
0$!
0/!
1_
1.!
0f
1`
1E
1&!
1g
1(!
1r
0n
06
05
04
02
1%!
0E
0`
11!
0(!
1a
0h
1)!
0s
0i
0&!
1b
0a
12!
0)!
0k
1*!
0t
1q
0j
1c
0b
0*!
0l
0w
0r
0c
1}
0x
08!
0~
19!
#300000
0!
0N
0O
1>
#305000
1!
1N
1O
0>
1o!
0T!
1U
1#!
0U!
1^
0V!
0Y!
02!
0d
0]
0J!
05!
03!
0Y
1V
0S
1*
1/!
0_
0.!
01!
0'!
1K!
1Y
0T
1`
#305001
0!"
1}!
1{!
1z!
1y!
0w!
1u!
1s!
1r!
1q!
0W!
1U!
0^
1V!
1a
1f
0`
0%!
1E
0q
1j
1h
1w
1r
1n
0}
1x
1v
07
15
13
12
11
0X!
1_
1.!
1b
1(!
1i
1&!
0r
0x
18!
1~
0f
1`
0j
09!
0(!
#310000
0!
0N
0O
1>
#315000
1!
1N
1O
0>
1^!
0f!
1b!
1`!
0c!
0e!
0U
1R
0Z!
1Q!
0V
1B!
1J
1J!
15!
0O!
1<
0Y
1C!
0K!
1P!
0@!
1.
0Q!
0L!
1A!
0.
0-
1,
#320000
0!
0N
0O
1>
#325000
1!
1N
1O
0>
1D!
0R
0J!
1I!
1O!
0B!
1S
0P!
1@!
0C!
1T
1Q!
1L!
0A!
1.
1-
0,
#325001
1!"
1~!
1|!
0y!
1w!
1v!
1t!
0q!
1W!
0U!
1^
0V!
10!
0/!
0_
0.!
0&!
1(!
1x
0v
17
16
14
01
1X!
1.!
11!
1f
0`
0g
0(!
1m
0h
0u
0n
1v
#330000
0!
0N
0O
1>
#335000
1!
1N
1O
0>
0D!
1U
0I!
05!
0S
1G
1K!
0T
15!
#335001
0!"
0~!
0}!
0|!
0{!
1y!
0w!
0v!
0u!
0t!
0s!
1q!
0W!
1U!
0^
1V!
00!
1/!
0.!
0a
0f
1`
1%!
0E
1&!
1g
1(!
1j
0m
1h
0x
1{
0v
07
06
05
04
03
11
0X!
1_
1.!
01!
0b
0(!
0i
0&!
0h
1u
1n
1|
0`
1q
0j
0{
1v
1r
0|
#340000
0!
0N
0O
1>
#345000
1!
1N
1O
0>
0^!
0b!
0]!
1\!
0d!
0U
1R
0Q!
0G
1R!
1=!
0L!
1A!
1J!
0O!
0<
0;
1:
05!
0K!
1P!
0@!
0.
0-
1,
0A!
0,
#350000
0!
0N
0O
1>
#355000
1!
1N
1O
0>
1>!
0R
0J!
0?!
0R!
1O!
0=!
1S
1K!
1T
#355001
1x!
1p!
0~
1|
10
#360000
0!
0N
0O
1>
#365000
1!
1N
1O
0>
0>!
0\!
1U
1?!
1Z!
0P!
1@!
0S
0:
0T
#370000
0!
0N
0O
1>
#375000
1!
1N
1O
0>
1^!
1_!
0U
1R
0Z!
1Q!
1H
1J!
0O!
1<
0K!
1P!
0@!
1.
0Q!
0.
#380000
0!
0N
0O
1>
#385000
1!
1N
1O
0>
0R
1O!
1S
0H
0P!
1@!
1T
1Q!
1.
#390000
0!
0N
0O
1>
#395000
1!
1N
1O
0>
1U
0J!
1V
0S
1K!
1Y
0T
#395001
1!"
1~!
1}!
1|!
0y!
0x!
1w!
1v!
1u!
1t!
0q!
0p!
1W!
0U!
1^
0V!
10!
0/!
0_
0.!
1a
1`
0%!
1E
1i
1&!
1(!
1x
0v
1~
0|
17
16
15
14
01
00
1X!
1.!
11!
1f
0`
1b
0&!
0q
1j
0g
0(!
0r
1h
#400000
0!
0N
0O
1>
#405000
1!
1N
1O
0>
0^!
1f!
0`!
1]!
0_!
1d!
1c!
1e!
0U
1R
1Z!
0Q!
0V
0J
1L!
1R!
1=!
15!
13!
1J!
0O!
0<
1;
0=!
1S!
0K!
1P!
0@!
0.
1-
1Q!
1A!
14!
1.
1,
1+
#410000
0!
0N
0O
1>
#415000
1!
1N
1O
0>
1T!
0R
1Y!
12!
1)!
1s
1k
1d
1c
1]
0R!
1O!
1S
1*!
1t
1l
0W!
00!
1'!
0a
0S!
0P!
1@!
1T
0X!
0)!
0b
0Q!
0A!
04!
0Y!
0*!
0c
0.
0,
0+
#415001
0~!
0}!
0|!
0z!
0v!
0u!
0t!
0r!
1/!
0.!
0f
1`
1%!
0E
1&!
1g
1(!
1r
0n
06
05
04
02
01!
0(!
1a
0i
0&!
0h
1)!
0s
02!
0)!
1b
1q
0j
0k
1*!
0t
0*!
1c
0w
0r
0l
1}
0x
08!
0~
19!
#420000
0!
0N
0O
1>
#425000
1!
1N
1O
0>
0o!
0T!
0n!
1m!
1U
0#!
1U!
0^
1V!
0d
0c
0]
0/!
1_
1.!
1f
0`
1E
0J!
05!
03!
0Y
1V
0S
0*
0)
1(
1$!
1/!
0.!
1W!
0'!
0a
0f
1`
1(!
1K!
1Y
0T
0E
1X!
0b
0(!
#425001
0!"
1}!
1{!
1z!
1y!
0w!
1u!
1s!
1r!
1q!
0W!
1#!
0U!
0V!
1a
1f
0`
0%!
1E
0q
1j
1h
1w
1r
1n
0}
1x
1v
07
15
13
12
11
0X!
0$!
0/!
1b
1(!
1i
1&!
0r
0x
18!
1~
1%!
0E
0j
09!
0i
0&!
1j
#430000
0!
0N
0O
1>
#435000
1!
1N
1O
0>
1^!
0f!
1b!
1`!
0c!
0e!
0U
1R
0Z!
1Q!
0V
1B!
1J
1J!
15!
0O!
1<
0Y
1C!
0K!
1P!
0@!
1.
0Q!
0L!
1A!
0.
0-
1,
#440000
0!
0N
0O
1>
#445000
1!
1N
1O
0>
1D!
0R
0J!
1I!
1O!
0B!
1S
0P!
1@!
0C!
1T
1Q!
1L!
0A!
1.
1-
0,
#445001
1!"
1~!
1|!
0y!
1w!
1v!
1t!
0q!
1W!
0#!
1U!
1V!
10!
1$!
1/!
1.!
1i
1&!
0g
0(!
1x
0v
17
16
14
01
1X!
0/!
11!
0%!
1E
0j
1m
0h
0&!
0u
0n
1v
#450000
0!
0N
0O
1>
#455000
1!
1N
1O
0>
0D!
1U
0I!
05!
0S
1G
1K!
0T
15!
#455001
0!"
0~!
0}!
0|!
0{!
1y!
0w!
0v!
0u!
0t!
0s!
1q!
0W!
1#!
0U!
0V!
00!
1/!
0.!
0a
0f
1`
1%!
0E
1&!
1g
1(!
1j
0m
1h
0x
1{
0v
07
06
05
04
03
11
0X!
0$!
0/!
01!
0b
0(!
0i
0&!
0h
1u
1n
1|
1E
1q
0j
0{
1v
1r
0|
#460000
0!
0N
0O
1>
#465000
1!
1N
1O
0>
0^!
0b!
0]!
1\!
0d!
0U
1R
0Q!
0G
1R!
1=!
0L!
1A!
1J!
0O!
0<
0;
1:
05!
0K!
1P!
0@!
0.
0-
1,
0A!
0,
#470000
0!
0N
0O
1>
#475000
1!
1N
1O
0>
1>!
0R
0J!
0?!
0R!
1O!
0=!
1S
1K!
1T
#475001
1x!
1p!
0~
1|
10
#480000
0!
0N
0O
1>
#485000
1!
1N
1O
0>
0>!
0\!
1U
1?!
1Z!
0P!
1@!
0S
0:
0T
#490000
0!
0N
0O
1>
#495000
1!
1N
1O
0>
1^!
1_!
0U
1R
0Z!
1Q!
1H
1J!
0O!
1<
0K!
1P!
0@!
1.
0Q!
0.
#500000
0!
0N
0O
1>
#505000
1!
1N
1O
0>
0R
1O!
1S
0H
0P!
1@!
1T
1Q!
1.
#510000
0!
0N
0O
1>
#515000
1!
1N
1O
0>
1U
0J!
1V
0S
1K!
1Y
0T
#515001
1!"
1~!
1}!
1|!
0y!
0x!
1w!
1v!
1u!
1t!
0q!
0p!
1W!
0#!
1U!
1V!
10!
1$!
1/!
1.!
1a
1f
0`
0E
1i
1&!
1(!
1x
0v
1~
0|
17
16
15
14
01
00
1X!
0/!
11!
0%!
1E
1b
0g
0(!
0q
1j
0&!
1h
0r
#520000
0!
0N
0O
1>
#525000
1!
1N
1O
0>
0^!
1f!
0`!
1]!
0_!
1d!
1c!
1e!
0U
1R
1Z!
0Q!
0V
0J
1L!
1R!
1=!
15!
13!
1J!
0O!
0<
1;
0=!
1S!
0K!
1P!
0@!
0.
1-
1Q!
1A!
14!
1.
1,
1+
#530000
0!
0N
0O
1>
#535000
1!
1N
1O
0>
1T!
0R
1Y!
12!
1)!
1s
1k
1d
1c
1]
0R!
1O!
1S
1*!
1t
1l
00!
1'!
0a
0S!
0P!
1@!
1T
0)!
0b
0Q!
0A!
04!
0*!
0c
0.
0,
0+
#535001
0~!
0}!
0|!
0z!
0v!
0u!
0t!
0r!
1/!
0.!
0f
1`
1%!
0E
1&!
1g
1(!
1r
0n
06
05
04
02
01!
0(!
1a
0i
0&!
0h
1)!
0s
02!
0)!
1b
1q
0j
0k
1*!
0t
0*!
1c
0w
0r
0l
1}
0x
08!
0~
19!
#540000
0!
0N
0O
1>
#545000
1!
1N
1O
0>
1o!
0T!
1U
1#!
0U!
1^
0V!
0Y!
0d
0c
0]
0J!
05!
03!
0Y
1V
0S
1*
0$!
0/!
1.!
0'!
0a
1K!
1Y
0T
1E
0b
#545001
0!"
1}!
1{!
1z!
1y!
0w!
1u!
1s!
1r!
1q!
0W!
1U!
0^
1V!
1a
1f
0`
0E
0q
1j
1h
1w
1r
1n
0}
1x
1v
07
15
13
12
11
0X!
0.!
1b
1(!
0r
0x
18!
1~
09!
#550000
0!
0N
0O
1>
#555000
1!
1N
1O
0>
1^!
0f!
1b!
1`!
0c!
0e!
0U
1R
0Z!
1Q!
0V
1B!
1J
1J!
15!
0O!
1<
0Y
1C!
0K!
1P!
0@!
1.
0Q!
0L!
1A!
0.
0-
1,
#560000
0!
0N
0O
1>
#565000
1!
1N
1O
0>
1D!
0R
0J!
1I!
1O!
0B!
1S
0P!
1@!
0C!
1T
1Q!
1L!
0A!
1.
1-
0,
#565001
1!"
1~!
1|!
0y!
1w!
1v!
1t!
0q!
1W!
0U!
1^
0V!
10!
1$!
1/!
1.!
1i
1&!
0g
0(!
1x
0v
17
16
14
01
1X!
0_
0.!
11!
0%!
1E
0j
1m
0h
1`
0&!
0u
0n
1v
#570000
0!
0N
0O
1>
#575000
1!
1N
1O
0>
0D!
1U
0I!
05!
0S
1G
1K!
0T
15!
